…
    ## -- Conflicts ------------------------------------------------------------------------------------------------------------------------------- tidyverse_conflicts() --
    ## x dplyr::filter() masks stats::filter()
    ## x dplyr::lag()    masks stats::lag()

Take a look inside your dataset

``` r
LHK
```

    ## # A tibble: 7,209 x 16
    ##        id name  host_id host_name neighbourhood_g~ neighbourhood latitude
    ##     <dbl> <chr>   <dbl> <chr>     <lgl>            <chr>            <dbl>
    ##  1  69074 Beau~  160139 Amy       NA               Central & We~     22.3
    ##  2  75083 SoHo~  304876 Brend     NA               Central & We~     22.3
    ##  3 103760 Cent~  304876 Brend     NA               Central & We~     22.3
    ##  4 104626 Enti~  544166 Celine    NA               Central & We~     22.3
    ##  5 132773 Fabu~  304876 Brend     NA               Central & We~     22.3
    ##  6 163664 Soho~  304876 Brend     NA               Central & We~     22.3
    ##  7 163742 Soho~  304876 Brend     NA               Central & We~     22.3
    ##  8 228510 Crea~ 1192493 Michael   NA               Yau Tsim Mong     22.3
    ##  9 248140 Brig~ 1300549 Darren    NA               Central & We~     22.3
    ## 10 274589 8 mi~ 1435069 Shanshan  NA               Wan Chai          22.3
    ## # ... with 7,199 more rows, and 9 more variables: longitude <dbl>,
    ## #   room_type <chr>, price <dbl>, minimum_nights <dbl>,
    ## #   number_of_reviews <dbl>, last_review <date>, reviews_per_month <dbl>,
    ## #   calculated_host_listings_count <dbl>, availability_365 <dbl>
…
  - Can you see any unusual patterns? What might explain them? I think
    it is unusual to see a quadmodal (4 humps) histogram distribution,
    but I think that it can be explained using the seasonal context of
    AirBNB.

Questions (Part 2) Q1: What seems to be the most common name (of a
person) in the city you selected?

``` r
count(LHK, host_name) %>% 
  arrange(desc(n))
```

    ## # A tibble: 1,497 x 2
    ##    host_name          n
    ##    <chr>          <int>
    ##  1 Jovee            387
    ##  2 Jov              340
    ##  3 Ivy              292
    ##  4 Fiona            146
    ##  5 Ego              130
    ##  6 Steven           127
    ##  7 Janis            113
    ##  8 Tane Residence   107
    ##  9 Rj                79
    ## 10 Sam               74
    ## # ... with 1,487 more rows
…
Answer: I would purchase a home in the Southern neighborhood because
from the period 2010-2019, home prices were steadily increasing and
outpacing the rest of Hong Kong, which can be expected to continue.

Part 3

``` r
LHK_by_neighborhood <- LHK %>% 
  group_by(neighbourhood) 

LHK_by_neighborhood
```

    ## # A tibble: 7,209 x 16
    ## # Groups:   neighbourhood [18]
    ##        id name  host_id host_name neighbourhood_g~ neighbourhood latitude
    ##     <dbl> <chr>   <dbl> <chr>     <lgl>            <chr>            <dbl>
    ##  1  69074 Beau~  160139 Amy       NA               Central & We~     22.3
    ##  2  75083 SoHo~  304876 Brend     NA               Central & We~     22.3
    ##  3 103760 Cent~  304876 Brend     NA               Central & We~     22.3
    ##  4 104626 Enti~  544166 Celine    NA               Central & We~     22.3
    ##  5 132773 Fabu~  304876 Brend     NA               Central & We~     22.3
    ##  6 163664 Soho~  304876 Brend     NA               Central & We~     22.3
    ##  7 163742 Soho~  304876 Brend     NA               Central & We~     22.3
    ##  8 228510 Crea~ 1192493 Michael   NA               Yau Tsim Mong     22.3
    ##  9 248140 Brig~ 1300549 Darren    NA               Central & We~     22.3
    ## 10 274589 8 mi~ 1435069 Shanshan  NA               Wan Chai          22.3
    ## # ... with 7,199 more rows, and 9 more variables: longitude <dbl>,
    ## #   room_type <chr>, price <dbl>, minimum_nights <dbl>,
    ## #   number_of_reviews <dbl>, last_review <date>, reviews_per_month <dbl>,
    ## #   calculated_host_listings_count <dbl>, availability_365 <dbl>
…
